{
    "name": "MUVE_Editor",
    "rootNamespace": "",
    "references": [
        "GUID:2cb677aecfea42247b5bc05fd3c70ddd",
        "GUID:fe685ec1767f73d42b749ea8045bfe43",
        "GUID:190979c3ed6e41c448f5e9925429edf9"
    ],
    "includePlatforms": [
        "Editor"
    ],
    "excludePlatforms": [],
    "allowUnsafeCode": false,
    "overrideReferences": false,
    "precompiledReferences": [],
    "autoReferenced": true,
    "defineConstraints": [],
    "versionDefines": [],
    "noEngineReferences": false
}